<?xml version="1.0" encoding="UTF-8" standalone="no"?>
<!-- Created with Inkscape (http://www.inkscape.org/) -->

<svg
   xmlns:dc="http://purl.org/dc/elements/1.1/"
   xmlns:cc="http://creativecommons.org/ns#"
   xmlns:rdf="http://www.w3.org/1999/02/22-rdf-syntax-ns#"
   xmlns:svg="http://www.w3.org/2000/svg"
   xmlns="http://www.w3.org/2000/svg"
   xmlns:sodipodi="http://sodipodi.sourceforge.net/DTD/sodipodi-0.dtd"
   xmlns:inkscape="http://www.inkscape.org/namespaces/inkscape"
   width="980mm"
   height="180mm"
   viewBox="0 0 980 180"
   version="1.1"
   id="svg8"
   inkscape:version="0.92.5 (2060ec1f9f, 2020-04-08)"
   sodipodi:docname="FutabaGrid.svg"
   inkscape:export-filename="/home/ksawery/eclipse-workspace/ARCzTest/FutabaGrid.png"
   inkscape:export-xdpi="25.28751"
   inkscape:export-ydpi="25.28751">
  <defs
     id="defs2" />
  <sodipodi:namedview
     id="base"
     pagecolor="#ffffff"
     bordercolor="#666666"
     borderopacity="1.0"
     inkscape:pageopacity="0.0"
     inkscape:pageshadow="2"
     inkscape:zoom="0.24748737"
     inkscape:cx="1474.0366"
     inkscape:cy="998.05445"
     inkscape:document-units="mm"
     inkscape:current-layer="layer1"
     showgrid="true"
     inkscape:window-width="1920"
     inkscape:window-height="1055"
     inkscape:window-x="0"
     inkscape:window-y="0"
     inkscape:window-maximized="1" />
  <metadata
     id="metadata5">
    <rdf:RDF>
      <cc:Work
         rdf:about="">
        <dc:format>image/svg+xml</dc:format>
        <dc:type
           rdf:resource="http://purl.org/dc/dcmitype/StillImage" />
        <dc:title></dc:title>
      </cc:Work>
    </rdf:RDF>
  </metadata>
  <g
     inkscape:label="Layer 1"
     inkscape:groupmode="layer"
     id="layer1"
     transform="translate(0,-117)">
    <g
       id="g6811"
       inkscape:label="Grid_Polar:X10:Y2"
       transform="matrix(3.6995591,0,0,3.3662134,2.1478725,119.72248)">
      <g
         id="g6781"
         inkscape:label="MajorXGridlines">
        <path
           id="path6763"
           inkscape:label="MajorXDiv1"
           style="fill:none;stroke:#000000;stroke-width:0.52916664"
           d="M 26.458333,0 V 52.916667"
           inkscape:connector-curvature="0" />
        <path
           id="path6765"
           inkscape:label="MajorXDiv2"
           style="fill:none;stroke:#000000;stroke-width:0.52916664"
           d="M 52.916667,0 V 52.916667"
           inkscape:connector-curvature="0" />
        <path
           id="path6767"
           inkscape:label="MajorXDiv3"
           style="fill:none;stroke:#000000;stroke-width:0.52916664"
           d="M 79.375,0 V 52.916667"
           inkscape:connector-curvature="0" />
        <path
           id="path6769"
           inkscape:label="MajorXDiv4"
           style="fill:none;stroke:#000000;stroke-width:0.52916664"
           d="M 105.83333,0 V 52.916667"
           inkscape:connector-curvature="0" />
        <path
           id="path6771"
           inkscape:label="MajorXDiv5"
           style="fill:none;stroke:#000000;stroke-width:0.52916664"
           d="M 132.29167,0 V 52.916667"
           inkscape:connector-curvature="0" />
        <path
           id="path6773"
           inkscape:label="MajorXDiv6"
           style="fill:none;stroke:#000000;stroke-width:0.52916664"
           d="M 158.75,0 V 52.916667"
           inkscape:connector-curvature="0" />
        <path
           id="path6775"
           inkscape:label="MajorXDiv7"
           style="fill:none;stroke:#000000;stroke-width:0.52916664"
           d="M 185.20833,0 V 52.916667"
           inkscape:connector-curvature="0" />
        <path
           id="path6777"
           inkscape:label="MajorXDiv8"
           style="fill:none;stroke:#000000;stroke-width:0.52916664"
           d="M 211.66667,0 V 52.916667"
           inkscape:connector-curvature="0" />
        <path
           id="path6779"
           inkscape:label="MajorXDiv9"
           style="fill:none;stroke:#000000;stroke-width:0.52916664"
           d="M 238.125,0 V 52.916667"
           inkscape:connector-curvature="0" />
      </g>
      <g
         id="g6785"
         inkscape:label="MajorYGridlines">
        <path
           id="path6783"
           inkscape:label="MajorYDiv1"
           style="fill:none;stroke:#000000;stroke-width:0.52916664"
           d="M 0,26.458333 H 264.58333"
           inkscape:connector-curvature="0" />
      </g>
      <g
         id="g6807"
         inkscape:label="MinorXGridlines">
        <path
           id="path6787"
           inkscape:label="MinorXDiv0:1"
           style="fill:none;stroke:#000000;stroke-width:0.52916664"
           d="M 13.229167,0 V 52.916667"
           inkscape:connector-curvature="0" />
        <path
           id="path6789"
           inkscape:label="MinorXDiv1:1"
           style="fill:none;stroke:#000000;stroke-width:0.52916664"
           d="M 39.6875,0 V 52.916667"
           inkscape:connector-curvature="0" />
        <path
           id="path6791"
           inkscape:label="MinorXDiv2:1"
           style="fill:none;stroke:#000000;stroke-width:0.52916664"
           d="M 66.145833,0 V 52.916667"
           inkscape:connector-curvature="0" />
        <path
           id="path6793"
           inkscape:label="MinorXDiv3:1"
           style="fill:none;stroke:#000000;stroke-width:0.52916664"
           d="M 92.604167,0 V 52.916667"
           inkscape:connector-curvature="0" />
        <path
           id="path6795"
           inkscape:label="MinorXDiv4:1"
           style="fill:none;stroke:#000000;stroke-width:0.52916664"
           d="M 119.0625,0 V 52.916667"
           inkscape:connector-curvature="0" />
        <path
           id="path6797"
           inkscape:label="MinorXDiv5:1"
           style="fill:none;stroke:#000000;stroke-width:0.52916664"
           d="M 145.52083,0 V 52.916667"
           inkscape:connector-curvature="0" />
        <path
           id="path6799"
           inkscape:label="MinorXDiv6:1"
           style="fill:none;stroke:#000000;stroke-width:0.52916664"
           d="M 171.97917,0 V 52.916667"
           inkscape:connector-curvature="0" />
        <path
           id="path6801"
           inkscape:label="MinorXDiv7:1"
           style="fill:none;stroke:#000000;stroke-width:0.52916664"
           d="M 198.4375,0 V 52.916667"
           inkscape:connector-curvature="0" />
        <path
           id="path6803"
           inkscape:label="MinorXDiv8:1"
           style="fill:none;stroke:#000000;stroke-width:0.52916664"
           d="M 224.89583,0 V 52.916667"
           inkscape:connector-curvature="0" />
        <path
           id="path6805"
           inkscape:label="MinorXDiv9:1"
           style="fill:none;stroke:#000000;stroke-width:0.52916664"
           d="M 251.35417,0 V 52.916667"
           inkscape:connector-curvature="0" />
      </g>
      <rect
         id="rect6809"
         inkscape:label="Border"
         y="0"
         x="0"
         width="264.58334"
         style="fill:none;stroke:#000000;stroke-width:0.79374999"
         height="52.916668" />
    </g>
  </g>
</svg>
